1. Vittayasak Rujvirakul
2. Pornthep Phanbua 6031305060
3. Mongkhon Sinsirimongkhon
4. Khomkrit Yongcharoenchaiyasit
5. krittamate tanbooutor 6031305002
5.25 nut Thananonkullapat 6031305057
6. Orasa Silakul 6031305043
7. Ratchanon Noknoi 6031305027
8. Rattanan Piyapanan 6031305029
9.Kornkamol Doungchareon 6031305001
12.Kanjanaporn Khanthong 6031305005
13.Vasin Srihuang 6031305033
witthawat chaowanwilai 6031305034
19.Guntapong Meepanya 6031305004
20. Khongphak Chaiphong 6031305006
21. Kyaw Min lwin 6031305067
17.Sarayuth Navasri 6031305065
13.Supakorn Songsaen 6031305037

22. Sarit Thongsangiam 6031305058

Kanud Manowan 6031305

Kanyaphat Wongudom 6031305003

25. Ponprapa Kantharan 6031305021

99.Phanuphong Suthawas 6031305024
11.Nattapon Soda 6031305013

100.Wanatchaporn Kampinit 6031305030
23. Thitirat Seela 6031305011